<?xml version="1.0" encoding="UTF-8" standalone="no"?>
<!DOCTYPE svg PUBLIC "-//W3C//DTD SVG 1.1//EN" "http://www.w3.org/Graphics/SVG/1.1/DTD/svg11.dtd">
<svg width="100%" height="100%" viewBox="0 0 1059 1643" version="1.1" xmlns="http://www.w3.org/2000/svg" xmlns:xlink="http://www.w3.org/1999/xlink" xml:space="preserve" xmlns:serif="http://www.serif.com/" style="fill-rule:evenodd;clip-rule:evenodd;stroke-linecap:round;stroke-linejoin:round;stroke-miterlimit:1.5;">
    <g transform="matrix(1,0,0,1,-4524,-5954)">
        <g transform="matrix(1,0,0,1,3924.13,107.138)">
            <g id="ivalyo" transform="matrix(1.81865,0,0,1.81865,-3295.59,5053.96)">
                <g id="guides">
                </g>
                <g transform="matrix(1,0,0,1,0,-45.4607)">
                    <g transform="matrix(1,0,0,1,7.3473,115.683)">
                        <g transform="matrix(1,0,0,1,-0.428659,-76.9867)">
                            <g transform="matrix(1.92049,0,0,1.92049,-2036.15,-648.276)">
                                <circle cx="2271.2" cy="763.514" r="9.586" style="fill:rgb(127,140,141);"/>
                            </g>
                            <g transform="matrix(1,0,0,1,-3.67234,40.4194)">
                                <path d="M2290.1,714.803L2348.3,714.803" style="fill:none;stroke:rgb(127,140,141);stroke-width:22.92px;"/>
                            </g>
                        </g>
                        <g id="good" transform="matrix(-1,0,0,1,4856.81,-76.9867)">
                            <g transform="matrix(1.92049,0,0,1.92049,-2036.15,-648.276)">
                                <circle cx="2271.2" cy="763.514" r="9.586" style="fill:rgb(127,140,141);"/>
                            </g>
                            <g transform="matrix(1,0,0,1,-3.67234,40.4194)">
                                <path d="M2290.1,714.803L2348.3,714.803" style="fill:none;stroke:rgb(127,140,141);stroke-width:22.92px;"/>
                            </g>
                        </g>
                    </g>
                    <g transform="matrix(1,0,0,1,-13.4733,51.4499)">
                        <path d="M2400.01,1012.95L2446.86,1013.79C2461.91,1009.06 2480.11,1006.06 2492.82,986.265" style="fill:none;stroke:rgb(127,140,141);stroke-width:22.92px;"/>
                    </g>
                    <g transform="matrix(1,0,0,1,-14.9526,88.3908)">
                        <path d="M2432.29,787.221L2431.82,876.346L2466.85,876.586" style="fill:none;stroke:rgb(127,140,141);stroke-width:22.92px;"/>
                    </g>
                </g>
                <g transform="matrix(1,0,0,1,0,6.90028)">
                    <path d="M2154.5,1319.42C2154.5,1319.42 2140.39,1249.69 2215.62,1226.17L2334.59,1186.45C2324.55,1186.16 2436.55,1248.91 2534.47,1185.41L2659.42,1229.27C2659.42,1229.27 2716.02,1239.43 2712.55,1320.8" style="fill:none;stroke:rgb(127,140,141);stroke-width:22.92px;"/>
                    <g transform="matrix(1,0,0,1,2.51101,-2.0624)">
                        <path d="M2333.88,1105.2L2333.29,1188.11" style="fill:none;stroke:rgb(127,140,141);stroke-width:22.92px;"/>
                    </g>
                    <g transform="matrix(1,0,0,1,194.73,1.47315)">
                        <path d="M2334.03,1103.87L2333.29,1188.11" style="fill:none;stroke:rgb(127,140,141);stroke-width:22.92px;"/>
                    </g>
                </g>
                <g>
                    <g transform="matrix(0.549858,0,0,0.549858,-556.424,-1362.19)">
                        <path d="M5070.23,3852.68C5057.98,4081.88 5086.45,4194.85 5157.46,4327.85C5174.78,4407.11 5268.27,4488.37 5319.47,4529.36C5367.52,4551.65 5352.31,4549.9 5439.57,4553.83" style="fill:none;stroke:rgb(127,140,141);stroke-width:41.67px;stroke-miterlimit:2.35366;"/>
                    </g>
                    <g transform="matrix(-0.549858,0,0,0.549858,5425.55,-1362.19)">
                        <path d="M5070.23,3852.68C5057.98,4081.88 5086.45,4194.85 5157.46,4327.85C5174.78,4407.11 5268.27,4488.37 5319.47,4529.36C5367.52,4551.65 5352.31,4549.9 5439.57,4553.83" style="fill:none;stroke:rgb(127,140,141);stroke-width:41.67px;stroke-miterlimit:2.35366;"/>
                    </g>
                </g>
                <g transform="matrix(1,0,0,1,10.5534,38.2222)">
                    <g transform="matrix(1,0,0,1,6.29802,-18.0295)">
                        <path d="M2204,777.187C2204,777.187 2172.22,776.918 2170.36,807.188C2170.27,808.64 2169.8,811.251 2169.8,811.251L2170.3,857.326C2170.3,857.326 2173.94,889.335 2208.07,901.479" style="fill:none;stroke:rgb(127,140,141);stroke-width:22.92px;"/>
                    </g>
                    <g transform="matrix(-1,0,0,1,4839.46,-7.93303)">
                        <path d="M2204,777.187C2204,777.187 2172.22,776.918 2170.36,807.188C2170.27,808.64 2169.8,811.251 2169.8,811.251L2170.3,857.326C2170.3,857.326 2173.87,888.667 2207,901.091" style="fill:none;stroke:rgb(127,140,141);stroke-width:22.92px;"/>
                    </g>
                </g>
                <g>
                    <g transform="matrix(0.549858,0,0,0.549858,-345.604,-2837.87)">
                        <path d="M4671.18,6497.62C4681.65,6491.25 4693.26,6482.56 4700.89,6474.86C4716.06,6459.53 4749.09,6419.22 4759.91,6393.84C4773.52,6361.93 4791.83,6312.38 4803.63,6271.4" style="fill:none;stroke:rgb(127,140,141);stroke-width:41.67px;"/>
                    </g>
                    <g transform="matrix(0.549858,0,0,0.549858,-345.604,-2837.87)">
                        <path d="M4765.77,6316.9C4798.37,6263.12 4855.69,6227.22 4941.06,6229.39C4968.01,6230.08 4998.43,6251.23 5056.39,6250.72" style="fill:none;stroke:rgb(127,140,141);stroke-width:41.67px;"/>
                    </g>
                    <g transform="matrix(0.549858,0,0,0.549858,-345.604,-2837.87)">
                        <path d="M4645.2,6634.88C4606.7,6598.22 4590.66,6439.25 4593.11,6301.71L4671.18,6122.73C4731.38,6068.05 4800.53,6020.68 4870.76,6003.06C4944.99,5984.44 4984.4,5975.62 5056.39,5975.37" style="fill:none;stroke:rgb(127,140,141);stroke-width:41.67px;"/>
                    </g>
                </g>
                <g transform="matrix(-1,0,0,1,4871.07,0)">
                    <g transform="matrix(0.549858,0,0,0.549858,-345.604,-2837.87)">
                        <path d="M4671.18,6497.62C4681.65,6491.25 4693.26,6482.56 4700.89,6474.86C4716.06,6459.53 4749.09,6419.22 4759.91,6393.84C4773.52,6361.93 4791.83,6312.38 4803.63,6271.4" style="fill:none;stroke:rgb(127,140,141);stroke-width:41.67px;"/>
                    </g>
                    <g transform="matrix(0.549858,0,0,0.549858,-345.604,-2837.87)">
                        <path d="M4765.77,6316.9C4798.37,6263.12 4855.69,6227.22 4941.06,6229.39C4968.01,6230.08 4998.43,6251.23 5056.39,6250.72" style="fill:none;stroke:rgb(127,140,141);stroke-width:41.67px;"/>
                    </g>
                    <g transform="matrix(0.549858,0,0,0.549858,-345.604,-2837.87)">
                        <path d="M4645.2,6634.88C4606.7,6598.22 4590.66,6439.25 4593.11,6301.71L4671.18,6122.73C4731.38,6068.05 4800.53,6020.68 4870.76,6003.06C4944.99,5984.44 4984.4,5975.62 5056.39,5975.37" style="fill:none;stroke:rgb(127,140,141);stroke-width:41.67px;"/>
                    </g>
                </g>
            </g>
        </g>
    </g>
</svg>
